…
d_concentrating_1_init <- read.csv("./dataset//subjectd-concentrating-1.csv")
# d_concentrating_2 has to few rows
d_neutral_1_init <- read.csv("./dataset//subjectd-neutral-1.csv")
d_neutral_2_init <- read.csv("./dataset//subjectd-neutral-2.csv")
d_relaxed_1_init <- read.csv("./dataset//subjectd-relaxed-1.csv")
d_relaxed_2_init <- read.csv("./dataset//subjectd-relaxed-2.csv")
```


```r
d_neutral_2_init
```

```
## # A tibble: 15,204 × 6
##     timestamps   TP9   AF7    AF8  TP10 Right.AUX
##          <dbl> <dbl> <dbl>  <dbl> <dbl>     <dbl>
##  1 1533058130. -1.46  6.84 12.7   -77.1     33.7 
##  2 1533058130.  8.30  6.35 -2.93  -81.1    -18.6 
##  3 1533058130. 21.0   7.81  0.488 -75.2     24.9 
##  4 1533058130. 20.5   6.84 16.1   -64.5     65.4 
##  5 1533058130. 11.7   9.77 10.7   -63.0     76.2 
##  6 1533058130.  6.35  9.28  3.91  -70.8     75.2 
##  7 1533058130. 13.2   8.79  0.977 -76.2     44.9 
##  8 1533058130. 28.8  13.7   2.93  -75.7     61.5 
##  9 1533058131. 33.2  17.1  15.1   -71.8     66.4 
## 10 1533058131. 22.9  20.5  18.1   -69.8      1.95
## # ℹ 15,194 more rows
```
…
d_concentrating_1 <- drop(d_concentrating_1_init)
d_neutral_1 <- drop(d_neutral_1_init)
d_neutral_2 <- drop(d_neutral_2_init)
d_relaxed_1 <- drop(d_relaxed_1_init)
d_relaxed_2 <- drop(d_relaxed_2_init)

d_neutral_2
```

```
## # A tibble: 9,998 × 6
##     timestamps   TP9   AF7   AF8  TP10 Right.AUX
##          <dbl> <dbl> <dbl> <dbl> <dbl>     <dbl>
##  1 1533058132.  39.6 23.4   44.9 -34.7     53.7 
##  2 1533058132.  26.9 23.9   31.7 -32.2     66.4 
##  3 1533058132.  18.6 19.5   15.1 -39.1      4.88
##  4 1533058132.  28.3 16.6   11.2 -42.0     13.7 
##  5 1533058132.  41.0 15.1   20.5 -39.6      5.37
##  6 1533058132.  41.0 14.2   24.4 -36.1     15.6 
##  7 1533058132.  28.3 15.6   14.6 -43.5     21.5 
##  8 1533058132.  15.1 12.7   15.6 -54.7     32.2 
##  9 1533058132.  17.6  8.79  16.1 -53.2     84.0 
## 10 1533058132.  33.7 11.7   17.6 -46.9    108.  
## # ℹ 9,988 more rows
```
…
d_concentrating_1 <- rename_to_NZ(d_concentrating_1)
d_neutral_1 <- rename_to_NZ(d_neutral_1)
d_neutral_2 <- rename_to_NZ(d_neutral_2)
d_relaxed_1 <- rename_to_NZ(d_relaxed_1)
d_relaxed_2 <- rename_to_NZ(d_relaxed_2)

a_concentrating_1
```

```
## # A tibble: 9,998 × 6
##     timestamps   TP9   AF7     AF8   TP10 Right.AUX
##          <dbl> <dbl> <dbl>   <dbl>  <dbl>     <dbl>
##  1 1533222562. 11.7   41.0  -45.4   -4.88     -40.0
##  2 1533222562. 18.1   36.6    6.84  -7.81      13.7
##  3 1533222562. 35.2   35.6   89.4   -4.39     -30.8
##  4 1533222562. 40.5   36.1   76.7    3.91     -46.4
##  5 1533222562. 23.4   37.1  -40.5   -1.95      34.7
##  6 1533222562.  1.46  35.2  -42.0   -9.77      67.9
##  7 1533222562.  4.39  29.8  -50.8  -10.3       48.3
##  8 1533222562. 28.3   32.2   22.5   -3.42      60.5
##  9 1533222562. 41.0   37.6   33.2    1.95      94.2
## 10 1533222562. 20.0   35.6 -120.    -5.37      48.8
## # ℹ 9,988 more rows
```
…
